…
               "Raby","Ramsgate","Ramsgate Beach","Randwick","Redfern","Regents Park","Regentville","Revesby","Revesby Heights","Rhodes","Richards","Richmond","Richmond Lowlands","Riverstone","Riverview","Riverwood","Rockdale","Rodd Point","Rookwood","Rooty Hill","Ropes Crossing","Rose Bay","Rosebery","Rosehill","Roselands","Rosemeadow","Roseville","Roseville Chase","Rossmore","Rouse Hill","Royal National Park","Rozelle","Ruse","Rushcutters Bay","Russell Lea","Rydalmere","Ryde",
               "Sackville","Sackville North","Sadleir","Sandringham","Sandy Point","Sans Souci","Scheyville","Schofields","Scotland Island","Seaforth","Sefton","Seven Hills","Shalvey","Shanes Park","Silverwater","Singletons Mill","Smeaton Grange","Smithfield","South Coogee","South Granville","South Hurstville","South Maroota","South Penrith","South Turramurra","South Wentworthville","South Windsor","Spring Farm","St Andrews","St Clair","St Helens Park","St Ives","St Ives Chase","St Johns Park","St Leonards","St Marys","St Peters","Stanhope Gardens","Stanmore","Strathfield","Strathfield South","Summer Hill","Surry Hills","Sutherland","Sydenham","Sydney Olympic Park","Sylvania","Sylvania Waters","Sydney",
               "Tallawong","Tamarama","Taren Point","Telopea","Tempe","Tennyson","Tennyson Point","Terrey Hills","The Ponds","The Rocks","The Slopes","Thornleigh","Toongabbie","Tregear","Turramurra","Turrella",
               "Ultimo",
               "Varroville","Vaucluse","Villawood","Vineyard","Voyager Point",
               "Wahroonga","Waitara","Wakeley","Wallacia","Wareemba","Warrawee","Warriewood","Warwick Farm","Waterfall","Waterloo","Watsons Bay","Wattle Grove","Waverley","Waverton","Wedderburn","Wentworth Point","Wentworthville","Werrington","Werrington County","Werrington Downs","West Hoxton","West Killara","West Lindfield","West Pennant Hills","West Pymble","West Ryde","Westleigh","Westmead","Wetherill Park","Whalan","Whale Beach","Wheeler Heights","Wilberforce","Wiley Park","Willmot","Willoughby","Willoughby East","Windsor","Windsor Downs","Winston Hills","Wisemans Ferry","Wolli Creek","Wollstonecraft","Woodbine","Woodcroft","Woodpark","Woollahra","Woolloomooloo","Woolooware","Woolwich","Woronora","Woronora Heights",
               "Yagoona","Yarramundi","Yarrawarrah","Yennora","Yowie Bay",
               "Zetland")
SydneySubs = tolower(SydneySubs)
sydney = filter(nsw_local, NSW_LOCALI %in% SydneySubs) %>% st_as_sf(.)
sydney = st_transform(sydney, 7844)
counter_in_sub = st_join(c_trial, sydney, join = st_within)
#> although coordinates are longitude/latitude, st_within assumes that they are planar
count(as_tibble(counter_in_sub), NSW_LOCALI)
#> # A tibble: 395 x 2
#>    NSW_LOCALI           n
#>  * <chr>            <int>
#>  1 abbotsbury           1
#>  2 agnes banks          2
#>  3 alexandria          10
#>  4 alfords point        1
#>  5 allambie heights     1
#>  6 allawah              1
#>  7 ambarvale            1
#>  8 annandale            3
#>  9 annangrove           1
#> 10 arncliffe            3
#> # … with 385 more rows
…
